テキスト分析ワークショップ
…
11のファイル、{InternationalOrganization}-{Country}-{year}.csvという規則のファイル名

テキストデータをRに読み込む

ファイルの中身の確認

data_temp <- read_csv("data/AMRO-Korea-2018.csv") # データを開く
print(data_temp) # 画面にプリントしてみる

## # A tibble: 1,514 x 5
##    page_number paragraph_number text                pages_to_skip detection
##          <dbl>            <dbl> <chr>               <lgl>         <chr>    
##  1           1                1 <NA>                TRUE          empty    
##  2           1                2 <NA>                TRUE          empty    
##  3           1                3 ASEAN+3 Macroecono… TRUE          page_foo…
##  4           1                4 <NA>                TRUE          empty    
##  5           1                5 <NA>                TRUE          empty    
##  6           1                6 AMRO Annual Consul… TRUE          normal   
##  7           1                7 Korea - 2018        TRUE          normal   
##  8           1                8 <NA>                TRUE          empty    
##  9           1                9 <NA>                TRUE          empty    
## 10           1               10 <NA>                TRUE          empty    
## # … with 1,504 more rows
…
行の削除にはpages_to_skip, detectionの変数の値を使う

dplyrを使ったデータフレームの加工

# "#"以降はコメント

data_temp <- data_temp %>% # "%>%"はdplyrのchaining command
  filter(pages_to_skip != TRUE) %>% # 列をフィルターする。スキップするページの削除
  # チェインはいくつも繋げられる
  filter(detection == "normal") %>% # ノーマルテキストの行を選択
  select(page_number, paragraph_number, text)
print(data_temp)

## # A tibble: 564 x 3
##    page_number paragraph_number text                                       
##          <dbl>            <dbl> <chr>                                      
##  1           4                4 Executive Summary                          
##  2           4                5 1. Korea’s economy is expected to grow at …
##  3           4                6 2. Headline inflation eased from 1.9 perce…
##  4           4                7 3. The economy is resilient to external sh…
##  5           4                8 4. The monetary policy stance remains acco…
##  6           4                9 5. In 2018, fiscal policy has been expansi…
##  7           4               10 6. Weaker-than-expected growth in China an…
##  8           4               11 7. Risks and vulnerability stemming from h…
##  9           5                4 risk from the debt build-up is not a conce…
## 10           5                5 8. Although the external sector remains ve…
## # … with 554 more rows
…
